…
``` r
tidy(model_yoe_af)
```

    ## # A tibble: 27 × 5
    ##    term                        estimate std.error statistic   p.value
    ##    <chr>                          <dbl>     <dbl>     <dbl>     <dbl>
    ##  1 (Intercept)                   1658.       8.44    196.   0        
    ##  2 as.factor(tc)1700             -136.       5.13    -26.5  8.30e-154
    ##  3 as.factor(tc)2100               19.0      5.51      3.45 5.66e-  4
    ##  4 as.factor(tc)2400              128.       5.75     22.2  3.07e-109
    ##  5 as.factor(gender)male          -26.5      4.06     -6.53 6.63e- 11
    ##  6 as.factor(race)black           -17.6     10.3      -1.70 8.86e-  2
    ##  7 as.factor(race)Hispanic        -59.1     10.2      -5.78 7.41e-  9
    ##  8 as.factor(race)other           242.      69.5       3.47 5.13e-  4
    ##  9 as.factor(race)white           -23.2      4.40     -5.29 1.25e-  7
    ## 10 as.factor(disposal_type)ISS    217.       3.67     59.0  0        
    ## # ℹ 17 more rows
